{
    "items": [
      {
        "album": {
          "album_type": "SINGLE",
          "artists": [
            {
              "external_urls": {
                "spotify": "https://open.spotify.com/artist/3VXe7BcibISROhxRdPuRNL"
              },
              "href": "https://api.spotify.com/v1/artists/3VXe7BcibISROhxRdPuRNL",
              "id": "3VXe7BcibISROhxRdPuRNL",
              "name": "Zmeyev",
              "type": "artist",
              "uri": "spotify:artist:3VXe7BcibISROhxRdPuRNL"
            }
          ],
          "available_markets": [
            "AD",
            "AE",
            "AR",
            "AT",
            "AU",
            "BE",
            "BG",
            "BH",
            "BO",
            "BR",
            "CA",
            "CH",
            "CL",
            "CO",
            "CR",
            "CY",
            "CZ",
            "DE",
            "DK",
            "DO",
            "DZ",
            "EC",
            "EE",
            "EG",
            "ES",
            "FI",
            "FR",
            "GB",
            "GR",
            "GT",
            "HK",
            "HN",
            "HU",
            "ID",
            "IE",
            "IL",
            "IN",
            "IS",
            "IT",
            "JO",
            "JP",
            "KW",
            "LB",
            "LI",
            "LT",
            "LU",
            "LV",
            "MA",
            "MC",
            "MT",
            "MX",
            "MY",
            "NI",
            "NL",
            "NO",
            "NZ",
            "OM",
            "PA",
            "PE",
            "PH",
            "PL",
            "PS",
            "PT",
            "PY",
            "QA",
            "RO",
            "SA",
            "SE",
            "SG",
            "SK",
            "SV",
            "TH",
            "TN",
            "TR",
            "TW",
            "US",
            "UY",
            "VN",
            "ZA"
          ],
          "external_urls": {
            "spotify": "https://open.spotify.com/album/1f7ad9AnLjFpb7alGnrsBP"
          },
          "href": "https://api.spotify.com/v1/albums/1f7ad9AnLjFpb7alGnrsBP",
          "id": "1f7ad9AnLjFpb7alGnrsBP",
          "images": [
            {
              "height": 640,
              "url": "https://i.scdn.co/image/ab67616d0000b27318b20bf8a42fa31d30f48975",
              "width": 640
            },
            {
              "height": 300,
              "url": "https://i.scdn.co/image/ab67616d00001e0218b20bf8a42fa31d30f48975",
              "width": 300
            },
            {
              "height": 64,
              "url": "https://i.scdn.co/image/ab67616d0000485118b20bf8a42fa31d30f48975",
              "width": 64
            }
          ],
          "name": "Every Night",
          "release_date": "2020-03-26",
          "release_date_precision": "day",
          "total_tracks": 1,
          "type": "album",
          "uri": "spotify:album:1f7ad9AnLjFpb7alGnrsBP"
        },
        "artists": [
          {
            "external_urls": {
              "spotify": "https://open.spotify.com/artist/3VXe7BcibISROhxRdPuRNL"
            },
            "href": "https://api.spotify.com/v1/artists/3VXe7BcibISROhxRdPuRNL",
            "id": "3VXe7BcibISROhxRdPuRNL",
            "name": "Zmeyev",
            "type": "artist",
            "uri": "spotify:artist:3VXe7BcibISROhxRdPuRNL"
          }
        ],
        "available_markets": [
          "AD",
          "AE",
          "AR",
          "AT",
          "AU",
          "BE",
          "BG",
          "BH",
          "BO",
          "BR",
          "CA",
          "CH",
          "CL",
          "CO",
          "CR",
          "CY",
          "CZ",
          "DE",
          "DK",
          "DO",
          "DZ",
          "EC",
          "EE",
          "EG",
          "ES",
          "FI",
          "FR",
          "GB",
          "GR",
          "GT",
          "HK",
          "HN",
          "HU",
          "ID",
          "IE",
          "IL",
          "IN",
          "IS",
          "IT",
          "JO",
          "JP",
          "KW",
          "LB",
          "LI",
          "LT",
          "LU",
          "LV",
          "MA",
          "MC",
          "MT",
          "MX",
          "MY",
          "NI",
          "NL",
          "NO",
          "NZ",
          "OM",
          "PA",
          "PE",
          "PH",
          "PL",
          "PS",
          "PT",
          "PY",
          "QA",
          "RO",
          "SA",
          "SE",
          "SG",
          "SK",
          "SV",
          "TH",
          "TN",
          "TR",
          "TW",
          "US",
          "UY",
          "VN",
          "ZA"
        ],
        "disc_number": 1,
        "duration_ms": 145152,
        "explicit": false,
        "external_ids": {
          "isrc": "TCAER2048502"
        },
        "external_urls": {
          "spotify": "https://open.spotify.com/track/0uXQpEJemFp9z0OJvecPwu"
        },
        "href": "https://api.spotify.com/v1/tracks/0uXQpEJemFp9z0OJvecPwu",
        "id": "0uXQpEJemFp9z0OJvecPwu",
        "is_local": false,
        "name": "Every Night",
        "popularity": 58,
        "preview_url": "https://p.scdn.co/mp3-preview/bc2ac0699605d4a68379e701cc57e7f8aa383668?cid=774b29d4f13844c495f206cafdad9c86",
        "track_number": 1,
        "type": "track",
        "uri": "spotify:track:0uXQpEJemFp9z0OJvecPwu"
      },
      {
        "album": {
          "album_type": "ALBUM",
          "artists": [
            {
              "external_urls": {
                "spotify": "https://open.spotify.com/artist/5nVbdvU60t7C0JBruxsS26"
              },
              "href": "https://api.spotify.com/v1/artists/5nVbdvU60t7C0JBruxsS26",
              "id": "5nVbdvU60t7C0JBruxsS26",
              "name": "Maeckes",
              "type": "artist",
              "uri": "spotify:artist:5nVbdvU60t7C0JBruxsS26"
            }
          ],
          "available_markets": [
            "AD",
            "AE",
            "AR",
            "AT",
            "AU",
            "BE",
            "BG",
            "BH",
            "BO",
            "BR",
            "CA",
            "CH",
            "CL",
            "CO",
            "CR",
            "CY",
            "CZ",
            "DE",
            "DK",
            "DO",
            "DZ",
            "EC",
            "EE",
            "EG",
            "ES",
            "FI",
            "FR",
            "GB",
            "GR",
            "GT",
            "HK",
            "HN",
            "HU",
            "ID",
            "IE",
            "IL",
            "IN",
            "IS",
            "IT",
            "JO",
            "JP",
            "KW",
            "LB",
            "LI",
            "LT",
            "LU",
            "LV",
            "MA",
            "MC",
            "MT",
            "MX",
            "MY",
            "NI",
            "NL",
            "NO",
            "NZ",
            "OM",
            "PA",
            "PE",
            "PH",
            "PL",
            "PS",
            "PT",
            "PY",
            "QA",
            "RO",
            "SA",
            "SE",
            "SG",
            "SK",
            "SV",
            "TH",
            "TN",
            "TR",
            "TW",
            "US",
            "UY",
            "VN",
            "ZA"
          ],
          "external_urls": {
            "spotify": "https://open.spotify.com/album/6v7Fmau3MNcbP3rICogcgc"
          },
          "href": "https://api.spotify.com/v1/albums/6v7Fmau3MNcbP3rICogcgc",
          "id": "6v7Fmau3MNcbP3rICogcgc",
          "images": [
            {
              "height": 640,
              "url": "https://i.scdn.co/image/ab67616d0000b273fe0af35aaea11a2083b2fdaa",
              "width": 640
            },
            {
              "height": 300,
              "url": "https://i.scdn.co/image/ab67616d00001e02fe0af35aaea11a2083b2fdaa",
              "width": 300
            },
            {
              "height": 64,
              "url": "https://i.scdn.co/image/ab67616d00004851fe0af35aaea11a2083b2fdaa",
              "width": 64
            }
          ],
          "name": "POOL",
          "release_date": "2021-06-10",
          "release_date_precision": "day",
          "total_tracks": 11,
          "type": "album",
          "uri": "spotify:album:6v7Fmau3MNcbP3rICogcgc"
        },
        "artists": [
          {
            "external_urls": {
              "spotify": "https://open.spotify.com/artist/5nVbdvU60t7C0JBruxsS26"
            },
            "href": "https://api.spotify.com/v1/artists/5nVbdvU60t7C0JBruxsS26",
            "id": "5nVbdvU60t7C0JBruxsS26",
            "name": "Maeckes",
            "type": "artist",
            "uri": "spotify:artist:5nVbdvU60t7C0JBruxsS26"
          }
        ],
        "available_markets": [
          "AD",
          "AE",
          "AR",
          "AT",
          "AU",
          "BE",
          "BG",
          "BH",
          "BO",
          "BR",
          "CA",
          "CH",
          "CL",
          "CO",
          "CR",
          "CY",
          "CZ",
          "DE",
          "DK",
          "DO",
          "DZ",
          "EC",
          "EE",
          "EG",
          "ES",
          "FI",
          "FR",
          "GB",
          "GR",
          "GT",
          "HK",
          "HN",
          "HU",
          "ID",
          "IE",
          "IL",
          "IN",
          "IS",
          "IT",
          "JO",
          "JP",
          "KW",
          "LB",
          "LI",
          "LT",
          "LU",
          "LV",
          "MA",
          "MC",
          "MT",
          "MX",
          "MY",
          "NI",
          "NL",
          "NO",
          "NZ",
          "OM",
          "PA",
          "PE",
          "PH",
          "PL",
          "PS",
          "PT",
          "PY",
          "QA",
          "RO",
          "SA",
          "SE",
          "SG",
          "SK",
          "SV",
          "TH",
          "TN",
          "TR",
          "TW",
          "US",
          "UY",
          "VN",
          "ZA"
        ],
        "disc_number": 1,
        "duration_ms": 144693,
        "explicit": false,
        "external_ids": {
          "isrc": "DEUM72100694"
        },
        "external_urls": {
          "spotify": "https://open.spotify.com/track/7ADki3MeiSkJdvuzo9AkBd"
        },
        "href": "https://api.spotify.com/v1/tracks/7ADki3MeiSkJdvuzo9AkBd",
        "id": "7ADki3MeiSkJdvuzo9AkBd",
        "is_local": false,
        "name": "Emilia",
        "popularity": 41,
        "preview_url": "https://p.scdn.co/mp3-preview/16e2b48050b4cd767b6d779a065ff21e09d6b703?cid=774b29d4f13844c495f206cafdad9c86",
        "track_number": 4,
        "type": "track",
        "uri": "spotify:track:7ADki3MeiSkJdvuzo9AkBd"
      },
      {
        "album": {
          "album_type": "ALBUM",
          "artists": [
            {
              "external_urls": {
                "spotify": "https://open.spotify.com/artist/5nVbdvU60t7C0JBruxsS26"
              },
              "href": "https://api.spotify.com/v1/artists/5nVbdvU60t7C0JBruxsS26",
              "id": "5nVbdvU60t7C0JBruxsS26",
              "name": "Maeckes",
              "type": "artist",
              "uri": "spotify:artist:5nVbdvU60t7C0JBruxsS26"
            }
          ],
          "available_markets": [
            "AD",
            "AE",
            "AR",
            "AT",
            "AU",
            "BE",
            "BG",
            "BH",
            "BO",
            "BR",
            "CA",
            "CH",
            "CL",
            "CO",
            "CR",
            "CY",
            "CZ",
            "DE",
            "DK",
            "DO",
            "DZ",
            "EC",
            "EE",
            "EG",
            "ES",
            "FI",
            "FR",
            "GB",
            "GR",
            "GT",
            "HK",
            "HN",
            "HU",
            "ID",
            "IE",
            "IL",
            "IN",
            "IS",
            "IT",
            "JO",
            "JP",
            "KW",
            "LB",
            "LI",
            "LT",
            "LU",
            "LV",
            "MA",
            "MC",
            "MT",
            "MX",
            "MY",
            "NI",
            "NL",
            "NO",
            "NZ",
            "OM",
            "PA",
            "PE",
            "PH",
            "PL",
            "PS",
            "PT",
            "PY",
            "QA",
            "RO",
            "SA",
            "SE",
            "SG",
            "SK",
            "SV",
            "TH",
            "TN",
            "TR",
            "TW",
            "US",
            "UY",
            "VN",
            "ZA"
          ],
          "external_urls": {
            "spotify": "https://open.spotify.com/album/6v7Fmau3MNcbP3rICogcgc"
          },
          "href": "https://api.spotify.com/v1/albums/6v7Fmau3MNcbP3rICogcgc",
          "id": "6v7Fmau3MNcbP3rICogcgc",
          "images": [
            {
              "height": 640,
              "url": "https://i.scdn.co/image/ab67616d0000b273fe0af35aaea11a2083b2fdaa",
              "width": 640
            },
            {
              "height": 300,
              "url": "https://i.scdn.co/image/ab67616d00001e02fe0af35aaea11a2083b2fdaa",
              "width": 300
            },
            {
              "height": 64,
              "url": "https://i.scdn.co/image/ab67616d00004851fe0af35aaea11a2083b2fdaa",
              "width": 64
            }
          ],
          "name": "POOL",
          "release_date": "2021-06-10",
          "release_date_precision": "day",
          "total_tracks": 11,
          "type": "album",
          "uri": "spotify:album:6v7Fmau3MNcbP3rICogcgc"
        },
        "artists": [
          {
            "external_urls": {
              "spotify": "https://open.spotify.com/artist/5nVbdvU60t7C0JBruxsS26"
            },
            "href": "https://api.spotify.com/v1/artists/5nVbdvU60t7C0JBruxsS26",
            "id": "5nVbdvU60t7C0JBruxsS26",
            "name": "Maeckes",
            "type": "artist",
            "uri": "spotify:artist:5nVbdvU60t7C0JBruxsS26"
          }
        ],
        "available_markets": [
          "AD",
          "AE",
          "AR",
          "AT",
          "AU",
          "BE",
          "BG",
          "BH",
          "BO",
          "BR",
          "CA",
          "CH",
          "CL",
          "CO",
          "CR",
          "CY",
          "CZ",
          "DE",
          "DK",
          "DO",
          "DZ",
          "EC",
          "EE",
          "EG",
          "ES",
          "FI",
          "FR",
          "GB",
          "GR",
          "GT",
          "HK",
          "HN",
          "HU",
          "ID",
          "IE",
          "IL",
          "IN",
          "IS",
          "IT",
          "JO",
          "JP",
          "KW",
          "LB",
          "LI",
          "LT",
          "LU",
          "LV",
          "MA",
          "MC",
          "MT",
          "MX",
          "MY",
          "NI",
          "NL",
          "NO",
          "NZ",
          "OM",
          "PA",
          "PE",
          "PH",
          "PL",
          "PS",
          "PT",
          "PY",
          "QA",
          "RO",
          "SA",
          "SE",
          "SG",
          "SK",
          "SV",
          "TH",
          "TN",
          "TR",
          "TW",
          "US",
          "UY",
          "VN",
          "ZA"
        ],
        "disc_number": 1,
        "duration_ms": 204493,
        "explicit": true,
        "external_ids": {
          "isrc": "DEUM72100691"
        },
        "external_urls": {
          "spotify": "https://open.spotify.com/track/5zu0uft9JKy31FHxOqHKdR"
        },
        "href": "https://api.spotify.com/v1/tracks/5zu0uft9JKy31FHxOqHKdR",
        "id": "5zu0uft9JKy31FHxOqHKdR",
        "is_local": false,
        "name": "1234",
        "popularity": 40,
        "preview_url": "https://p.scdn.co/mp3-preview/a5cc72a1fca0878bcab8e344a612d1048ee4ba00?cid=774b29d4f13844c495f206cafdad9c86",
        "track_number": 3,
        "type": "track",
        "uri": "spotify:track:5zu0uft9JKy31FHxOqHKdR"
      },
      {
        "album": {
          "album_type": "ALBUM",
          "artists": [
            {
              "external_urls": {
                "spotify": "https://open.spotify.com/artist/08yf5A2nS4XEeNvabDXqyg"
              },
              "href": "https://api.spotify.com/v1/artists/08yf5A2nS4XEeNvabDXqyg",
              "id": "08yf5A2nS4XEeNvabDXqyg",
              "name": "Billy Talent",
              "type": "artist",
              "uri": "spotify:artist:08yf5A2nS4XEeNvabDXqyg"
            }
          ],
          "available_markets": [
            "AD",
            "AE",
            "AR",
            "AT",
            "BE",
            "BG",
            "BH",
            "BO",
            "BR",
            "CA",
            "CH",
            "CL",
            "CO",
            "CR",
            "CY",
            "CZ",
            "DE",
            "DK",
            "DO",
            "DZ",
            "EC",
            "EE",
            "EG",
            "ES",
            "FI",
            "FR",
            "GB",
            "GR",
            "GT",
            "HK",
            "HN",
            "HU",
            "ID",
            "IE",
            "IL",
            "IN",
            "IS",
            "IT",
            "JO",
            "JP",
            "KW",
            "LB",
            "LI",
            "LT",
            "LU",
            "LV",
            "MA",
            "MC",
            "MT",
            "MX",
            "MY",
            "NI",
            "NL",
            "NO",
            "OM",
            "PA",
            "PE",
            "PH",
            "PL",
            "PS",
            "PT",
            "PY",
            "QA",
            "RO",
            "SA",
            "SE",
            "SG",
            "SK",
            "SV",
            "TH",
            "TN",
            "TR",
            "TW",
            "US",
            "UY",
            "VN",
            "ZA"
          ],
          "external_urls": {
            "spotify": "https://open.spotify.com/album/4Z4FErymthnN4ctJdKRgko"
          },
          "href": "https://api.spotify.com/v1/albums/4Z4FErymthnN4ctJdKRgko",
          "id": "4Z4FErymthnN4ctJdKRgko",
          "images": [
            {
              "height": 640,
              "url": "https://i.scdn.co/image/ab67616d0000b273c88a0bc8ef7f556fa864c4f1",
              "width": 640
            },
            {
              "height": 300,
              "url": "https://i.scdn.co/image/ab67616d00001e02c88a0bc8ef7f556fa864c4f1",
              "width": 300
            },
            {
              "height": 64,
              "url": "https://i.scdn.co/image/ab67616d00004851c88a0bc8ef7f556fa864c4f1",
              "width": 64
            }
          ],
          "name": "Billy Talent",
          "release_date": "2003-08-26",
          "release_date_precision": "day",
          "total_tracks": 12,
          "type": "album",
          "uri": "spotify:album:4Z4FErymthnN4ctJdKRgko"
        },
        "artists": [
          {
            "external_urls": {
              "spotify": "https://open.spotify.com/artist/08yf5A2nS4XEeNvabDXqyg"
            },
            "href": "https://api.spotify.com/v1/artists/08yf5A2nS4XEeNvabDXqyg",
            "id": "08yf5A2nS4XEeNvabDXqyg",
            "name": "Billy Talent",
            "type": "artist",
            "uri": "spotify:artist:08yf5A2nS4XEeNvabDXqyg"
          }
        ],
        "available_markets": [
          "AD",
          "AE",
          "AR",
          "AT",
          "BE",
          "BG",
          "BH",
          "BO",
          "BR",
          "CA",
          "CH",
          "CL",
          "CO",
          "CR",
          "CY",
          "CZ",
          "DE",
          "DK",
          "DO",
          "DZ",
          "EC",
          "EE",
          "EG",
          "ES",
          "FI",
          "FR",
          "GB",
          "GR",
          "GT",
          "HK",
          "HN",
          "HU",
          "ID",
          "IE",
          "IL",
          "IN",
          "IS",
          "IT",
          "JO",
          "JP",
          "KW",
          "LB",
          "LI",
          "LT",
          "LU",
          "LV",
          "MA",
          "MC",
          "MT",
          "MX",
          "MY",
          "NI",
          "NL",
          "NO",
          "OM",
          "PA",
          "PE",
          "PH",
          "PL",
          "PS",
          "PT",
          "PY",
          "QA",
          "RO",
          "SA",
          "SE",
          "SG",
          "SK",
          "SV",
          "TH",
          "TN",
          "TR",
          "TW",
          "US",
          "UY",
          "VN",
          "ZA"
        ],
        "disc_number": 1,
        "duration_ms": 253706,
        "explicit": false,
        "external_ids": {
          "isrc": "USAT20301013"
        },
        "external_urls": {
          "spotify": "https://open.spotify.com/track/3fPSHjVO4iwwGEhHvTwlNb"
        },
        "href": "https://api.spotify.com/v1/tracks/3fPSHjVO4iwwGEhHvTwlNb",
        "id": "3fPSHjVO4iwwGEhHvTwlNb",
        "is_local": false,
        "name": "Try Honesty",
        "popularity": 58,
        "preview_url": "https://p.scdn.co/mp3-preview/45f345cb9764705880d2e84dd0e6984e10e7251b?cid=774b29d4f13844c495f206cafdad9c86",
        "track_number": 3,
        "type": "track",
        "uri": "spotify:track:3fPSHjVO4iwwGEhHvTwlNb"
      },
      {
        "album": {
          "album_type": "ALBUM",
          "artists": [
            {
              "external_urls": {
                "spotify": "https://open.spotify.com/artist/5nVbdvU60t7C0JBruxsS26"
              },
              "href": "https://api.spotify.com/v1/artists/5nVbdvU60t7C0JBruxsS26",
              "id": "5nVbdvU60t7C0JBruxsS26",
              "name": "Maeckes",
              "type": "artist",
              "uri": "spotify:artist:5nVbdvU60t7C0JBruxsS26"
            }
          ],
          "available_markets": [
            "AD",
            "AE",
            "AR",
            "AT",
            "AU",
            "BE",
            "BG",
            "BH",
            "BO",
            "BR",
            "CA",
            "CH",
            "CL",
            "CO",
            "CR",
            "CY",
            "CZ",
            "DE",
            "DK",
            "DO",
            "DZ",
            "EC",
            "EE",
            "EG",
            "ES",
            "FI",
            "FR",
            "GB",
            "GR",
            "GT",
            "HK",
            "HN",
            "HU",
            "ID",
            "IE",
            "IL",
            "IN",
            "IS",
            "IT",
            "JO",
            "JP",
            "KW",
            "LB",
            "LI",
            "LT",
            "LU",
            "LV",
            "MA",
            "MC",
            "MT",
            "MX",
            "MY",
            "NI",
            "NL",
            "NO",
            "NZ",
            "OM",
            "PA",
            "PE",
            "PH",
            "PL",
            "PS",
            "PT",
            "PY",
            "QA",
            "RO",
            "SA",
            "SE",
            "SG",
            "SK",
            "SV",
            "TH",
            "TN",
            "TR",
            "TW",
            "US",
            "UY",
            "VN",
            "ZA"
          ],
          "external_urls": {
            "spotify": "https://open.spotify.com/album/6v7Fmau3MNcbP3rICogcgc"
          },
          "href": "https://api.spotify.com/v1/albums/6v7Fmau3MNcbP3rICogcgc",
          "id": "6v7Fmau3MNcbP3rICogcgc",
          "images": [
            {
              "height": 640,
              "url": "https://i.scdn.co/image/ab67616d0000b273fe0af35aaea11a2083b2fdaa",
              "width": 640
            },
            {
              "height": 300,
              "url": "https://i.scdn.co/image/ab67616d00001e02fe0af35aaea11a2083b2fdaa",
              "width": 300
            },
            {
              "height": 64,
              "url": "https://i.scdn.co/image/ab67616d00004851fe0af35aaea11a2083b2fdaa",
              "width": 64
            }
          ],
          "name": "POOL",
          "release_date": "2021-06-10",
          "release_date_precision": "day",
          "total_tracks": 11,
          "type": "album",
          "uri": "spotify:album:6v7Fmau3MNcbP3rICogcgc"
        },
        "artists": [
          {
            "external_urls": {
              "spotify": "https://open.spotify.com/artist/5nVbdvU60t7C0JBruxsS26"
            },
            "href": "https://api.spotify.com/v1/artists/5nVbdvU60t7C0JBruxsS26",
            "id": "5nVbdvU60t7C0JBruxsS26",
            "name": "Maeckes",
            "type": "artist",
            "uri": "spotify:artist:5nVbdvU60t7C0JBruxsS26"
          }
        ],
        "available_markets": [
          "AD",
          "AE",
          "AR",
          "AT",
          "AU",
          "BE",
          "BG",
          "BH",
          "BO",
          "BR",
          "CA",
          "CH",
          "CL",
          "CO",
          "CR",
          "CY",
          "CZ",
          "DE",
          "DK",
          "DO",
          "DZ",
          "EC",
          "EE",
          "EG",
          "ES",
          "FI",
          "FR",
          "GB",
          "GR",
          "GT",
          "HK",
          "HN",
          "HU",
          "ID",
          "IE",
          "IL",
          "IN",
          "IS",
          "IT",
          "JO",
          "JP",
          "KW",
          "LB",
          "LI",
          "LT",
          "LU",
          "LV",
          "MA",
          "MC",
          "MT",
          "MX",
          "MY",
          "NI",
          "NL",
          "NO",
          "NZ",
          "OM",
          "PA",
          "PE",
          "PH",
          "PL",
          "PS",
          "PT",
          "PY",
          "QA",
          "RO",
          "SA",
          "SE",
          "SG",
          "SK",
          "SV",
          "TH",
          "TN",
          "TR",
          "TW",
          "US",
          "UY",
          "VN",
          "ZA"
        ],
        "disc_number": 1,
        "duration_ms": 180373,
        "explicit": false,
        "external_ids": {
          "isrc": "DEUM72100701"
        },
        "external_urls": {
          "spotify": "https://open.spotify.com/track/4v5g8wrU5DuOVgD3OvErYB"
        },
        "href": "https://api.spotify.com/v1/tracks/4v5g8wrU5DuOVgD3OvErYB",
        "id": "4v5g8wrU5DuOVgD3OvErYB",
        "is_local": false,
        "name": "Calippo Vivaldi",
        "popularity": 41,
        "preview_url": "https://p.scdn.co/mp3-preview/68a19f647815816118b0a3ba6edf39ccd1fadfa2?cid=774b29d4f13844c495f206cafdad9c86",
        "track_number": 11,
        "type": "track",
        "uri": "spotify:track:4v5g8wrU5DuOVgD3OvErYB"
      }
    ],
    "total": 50,
    "limit": 5,
    "offset": 0,
    "previous": null,
    "href": "https://api.spotify.com/v1/me/top/tracks?limit=5&offset=0&time_range=short_term",
    "next": "https://api.spotify.com/v1/me/top/tracks?limit=5&offset=5&time_range=short_term"
  }